%YAML 1.1
%TAG !u! tag:unity3d.com,2011:
--- !u!74 &7400000
AnimationClip:
  m_ObjectHideFlags: 0
  m_CorrespondingSourceObject: {fileID: 0}
  m_PrefabInstance: {fileID: 0}
  m_PrefabAsset: {fileID: 0}
  m_Name: kokon_2_6
  serializedVersion: 6
  m_Legacy: 0
  m_Compressed: 0
  m_UseHighQualityCurve: 1
  m_RotationCurves:
  - curve:
      serializedVersion: 2
      m_Curve:
      - serializedVersion: 3
        time: 0.033333335
        value: {x: 0.7071069, y: 0, z: -0, w: 0.7071067}
        inSlope: {x: 0, y: 0, z: 0, w: 0}
        outSlope: {x: 0, y: 0, z: 0, w: 0}
        tangentMode: 0
        weightedMode: 0
        inWeight: {x: 0.33333334, y: 0.33333334, z: 0.33333334, w: 0.33333334}
        outWeight: {x: 0.33333334, y: 0.33333334, z: 0.33333334, w: 0.33333334}
      - serializedVersion: 3
        time: 0.06666667
        value: {x: 0.7071069, y: 0, z: -0, w: 0.7071067}
        inSlope: {x: 0, y: 0, z: 0, w: 0}
        outSlope: {x: 0, y: 0, z: 0, w: 0}
        tangentMode: 0
        weightedMode: 0
        inWeight: {x: 0.33333334, y: 0.33333334, z: 0.33333334, w: 0.33333334}
        outWeight: {x: 0.33333334, y: 0.33333334, z: 0.33333334, w: 0.33333334}
      m_PreInfinity: 2
      m_PostInfinity: 2
      m_RotationOrder: 4
    path: Vaza.001
  - curve:
      serializedVersion: 2
      m_Curve:
      - serializedVersion: 3
        time: 0.033333335
        value: {x: -0.33793268, y: -0.02913396, z: 0.051756553, w: 0.9392944}
        inSlope: {x: 0, y: 0, z: 0, w: 0}
        outSlope: {x: 0, y: 0, z: 0, w: 0}
        tangentMode: 0
        weightedMode: 0
        inWeight: {x: 0.33333334, y: 0.33333334, z: 0.33333334, w: 0.33333334}
        outWeight: {x: 0.33333334, y: 0.33333334, z: 0.33333334, w: 0.33333334}
      - serializedVersion: 3
        time: 0.06666667
        value: {x: -0.33793268, y: -0.02913396, z: 0.051756553, w: 0.9392944}
        inSlope: {x: 0, y: 0, z: 0, w: 0}
        outSlope: {x: 0, y: 0, z: 0, w: 0}
        tangentMode: 0
        weightedMode: 0
        inWeight: {x: 0.33333334, y: 0.33333334, z: 0.33333334, w: 0.33333334}
        outWeight: {x: 0.33333334, y: 0.33333334, z: 0.33333334, w: 0.33333334}
      m_PreInfinity: 2
      m_PostInfinity: 2
      m_RotationOrder: 4
    path: List.004
  - curve:
      serializedVersion: 2
      m_Curve:
      - serializedVersion: 3
        time: 0.033333335
        value: {x: -0.592969, y: 0.3139468, z: -0.50760555, w: 0.54051995}
        inSlope: {x: 0, y: 0, z: 0, w: 0}
        outSlope: {x: 0, y: 0, z: 0, w: 0}
        tangentMode: 0
        weightedMode: 0
        inWeight: {x: 0.33333334, y: 0.33333334, z: 0.33333334, w: 0.33333334}
        outWeight: {x: 0.33333334, y: 0.33333334, z: 0.33333334, w: 0.33333334}
      - serializedVersion: 3
        time: 0.06666667
        value: {x: -0.592969, y: 0.3139468, z: -0.50760555, w: 0.54051995}
        inSlope: {x: 0, y: 0, z: 0, w: 0}
        outSlope: {x: 0, y: 0, z: 0, w: 0}
        tangentMode: 0
        weightedMode: 0
        inWeight: {x: 0.33333334, y: 0.33333334, z: 0.33333334, w: 0.33333334}
        outWeight: {x: 0.33333334, y: 0.33333334, z: 0.33333334, w: 0.33333334}
      m_PreInfinity: 2
      m_PostInfinity: 2
      m_RotationOrder: 4
    path: List.005
  - curve:
      serializedVersion: 2
      m_Curve:
      - serializedVersion: 3
        time: 0.033333335
        value: {x: 0.2999433, y: -0.07827835, z: 0.92651874, w: -0.21323602}
        inSlope: {x: 0, y: 0, z: 0, w: 0}
        outSlope: {x: 0, y: 0, z: 0, w: 0}
        tangentMode: 0
        weightedMode: 0
        inWeight: {x: 0.33333334, y: 0.33333334, z: 0.33333334, w: 0.33333334}
        outWeight: {x: 0.33333334, y: 0.33333334, z: 0.33333334, w: 0.33333334}
      - serializedVersion: 3
        time: 0.06666667
        value: {x: 0.2999433, y: -0.07827835, z: 0.92651874, w: -0.21323602}
        inSlope: {x: 0, y: 0, z: 0, w: 0}
        outSlope: {x: 0, y: 0, z: 0, w: 0}
        tangentMode: 0
        weightedMode: 0
        inWeight: {x: 0.33333334, y: 0.33333334, z: 0.33333334, w: 0.33333334}
        outWeight: {x: 0.33333334, y: 0.33333334, z: 0.33333334, w: 0.33333334}
      m_PreInfinity: 2
      m_PostInfinity: 2
      m_RotationOrder: 4
    path: List.006
  - curve:
      serializedVersion: 2
      m_Curve:
      - serializedVersion: 3
        time: 0.033333335
        value: {x: -0.71423614, y: -0.0060727196, z: 0.0089982245, w: 0.69982064}
        inSlope: {x: -0.036866065, y: -0.0005069934, z: 0.01082126, w: -0.037838813}
        outSlope: {x: -0.036866065, y: -0.0005069934, z: 0.01082126, w: -0.037838813}
        tangentMode: 0
        weightedMode: 0
        inWeight: {x: 0.33333334, y: 0.33333334, z: 0.33333334, w: 0.33333334}
        outWeight: {x: 0.33333334, y: 0.33333334, z: 0.33333334, w: 0.33333334}
      - serializedVersion: 3
        time: 0.36666667
        value: {x: -0.7444895, y: -0.05256259, z: 0.07166898, w: 0.66169184}
        inSlope: {x: 0.09694035, y: -0.3901105, z: 0.443711, w: 0.029102841}
        outSlope: {x: 0.09694035, y: -0.3901105, z: 0.443711, w: 0.029102841}
        tangentMode: 0
        weightedMode: 0
        inWeight: {x: 0.33333334, y: 0.33333334, z: 0.33333334, w: 0.33333334}
        outWeight: {x: 0.33333334, y: 0.33333334, z: 0.33333334, w: 0.33333334}
      - serializedVersion: 3
        time: 0.6
        value: {x: -0.697385, y: -0.101661235, z: 0.14504465, w: 0.6944647}
        inSlope: {x: 0.19594076, y: 0.16189766, z: -0.020519085, w: 0.22446156}
        outSlope: {x: 0.19594076, y: 0.16189766, z: -0.020519085, w: 0.22446156}
        tangentMode: 0
        weightedMode: 0
        inWeight: {x: 0.33333334, y: 0.33333334, z: 0.33333334, w: 0.33333334}
        outWeight: {x: 0.33333334, y: 0.33333334, z: 0.33333334, w: 0.33333334}
      - serializedVersion: 3
        time: 0.86666673
        value: {x: -0.6798922, y: -0.015207542, z: 0.09384999, w: 0.7271228}
        inSlope: {x: -0.060302325, y: 0.375417, z: -0.20567536, w: -0.021979818}
        outSlope: {x: -0.060302325, y: 0.375417, z: -0.20567536, w: -0.021979818}
        tangentMode: 0
        weightedMode: 0
        inWeight: {x: 0.33333334, y: 0.33333334, z: 0.33333334, w: 0.33333334}
        outWeight: {x: 0.33333334, y: 0.33333334, z: 0.33333334, w: 0.33333334}
      - serializedVersion: 3
        time: 1.2
        value: {x: -0.6971249, y: 0.105427265, z: 0.03282983, w: 0.70839554}
        inSlope: {x: -0.0069165295, y: 0.19866717, z: -0.11095479, w: -0.030710429}
        outSlope: {x: -0.0069165295, y: 0.19866717, z: -0.11095479, w: -0.030710429}
        tangentMode: 0
        weightedMode: 0
        inWeight: {x: 0.33333334, y: 0.33333334, z: 0.33333334, w: 0.33333334}
        outWeight: {x: 0.33333334, y: 0.33333334, z: 0.33333334, w: 0.33333334}
      - serializedVersion: 3
        time: 1.5333334
        value: {x: -0.69331235, y: 0.06447397, z: 0.062065262, w: 0.71505874}
        inSlope: {x: 0.033847723, y: -0.41908014, z: 0.30460572, w: 0.043028038}
        outSlope: {x: 0.033847723, y: -0.41908014, z: 0.30460572, w: 0.043028038}
        tangentMode: 0
        weightedMode: 0
        inWeight: {x: 0.33333334, y: 0.33333334, z: 0.33333334, w: 0.33333334}
        outWeight: {x: 0.33333334, y: 0.33333334, z: 0.33333334, w: 0.33333334}
      - serializedVersion: 3
        time: 1.7333335
        value: {x: -0.6925105, y: -0.05005128, z: 0.14307205, w: 0.70530456}
        inSlope: {x: -0.037879013, y: -0.47025752, z: 0.28113607, w: -0.12499618}
        outSlope: {x: -0.037879013, y: -0.47025752, z: 0.28113607, w: -0.12499618}
        tangentMode: 0
        weightedMode: 0
        inWeight: {x: 0.33333334, y: 0.33333334, z: 0.33333334, w: 0.33333334}
        outWeight: {x: 0.33333334, y: 0.33333334, z: 0.33333334, w: 0.33333334}
      - serializedVersion: 3
        time: 1.8666668
        value: {x: -0.6857841, y: -0.057889145, z: 0.13928373, w: 0.7120035}
        inSlope: {x: 0.22191332, y: 0.33887416, z: -0.31060055, w: 0.29928875}
        outSlope: {x: 0.22191332, y: 0.33887416, z: -0.31060055, w: 0.29928875}
        tangentMode: 0
        weightedMode: 0
        inWeight: {x: 0.33333334, y: 0.33333334, z: 0.33333334, w: 0.33333334}
        outWeight: {x: 0.33333334, y: 0.33333334, z: 0.33333334, w: 0.33333334}
      - serializedVersion: 3
        time: 2
        value: {x: -0.66119593, y: 0.0048634657, z: 0.0773298, w: 0.7462013}
        inSlope: {x: -0.013677159, y: 0.4664563, z: -0.50943774, w: 0.038468547}
        outSlope: {x: -0.013677159, y: 0.4664563, z: -0.50943774, w: 0.038468547}
        tangentMode: 0
        weightedMode: 0
        inWeight: {x: 0.33333334, y: 0.33333334, z: 0.33333334, w: 0.33333334}
        outWeight: {x: 0.33333334, y: 0.33333334, z: 0.33333334, w: 0.33333334}
      - serializedVersion: 3
        time: 2.3666668
        value: {x: -0.71823704, y: 0.0700154, z: 0.023677606, w: 0.6918618}
        inSlope: {x: -0.15060261, y: -0.22678524, z: 0.27367884, w: -0.14339997}
        outSlope: {x: -0.15060261, y: -0.22678524, z: 0.27367884, w: -0.14339997}
        tangentMode: 0
        weightedMode: 0
        inWeight: {x: 0.33333334, y: 0.33333334, z: 0.33333334, w: 0.33333334}
        outWeight: {x: 0.33333334, y: 0.33333334, z: 0.33333334, w: 0.33333334}
      - serializedVersion: 3
        time: 2.6333334
        value: {x: -0.7185172, y: -0.04717721, z: 0.12984556, w: 0.6816505}
        inSlope: {x: 0.12369466, y: -0.49941838, z: 0.35765, w: 0.02884182}
        outSlope: {x: 0.12369466, y: -0.49941838, z: 0.35765, w: 0.02884182}
        tangentMode: 0
        weightedMode: 0
        inWeight: {x: 0.33333334, y: 0.33333334, z: 0.33333334, w: 0.33333334}
        outWeight: {x: 0.33333334, y: 0.33333334, z: 0.33333334, w: 0.33333334}
      - serializedVersion: 3
        time: 2.8333335
        value: {x: -0.7043552, y: -0.065892115, z: 0.14122081, w: 0.69253075}
        inSlope: {x: -0.049053177, y: 0.52946216, z: -0.4365551, w: 0.08545347}
        outSlope: {x: -0.049053177, y: 0.52946216, z: -0.4365551, w: 0.08545347}
        tangentMode: 0
        weightedMode: 0
        inWeight: {x: 0.33333334, y: 0.33333334, z: 0.33333334, w: 0.33333334}
        outWeight: {x: 0.33333334, y: 0.33333334, z: 0.33333334, w: 0.33333334}
      - serializedVersion: 3
        time: 3.0000002
        value: {x: -0.710669, y: 0.040712804, z: 0.050132878, w: 0.70055604}
        inSlope: {x: -0.014001144, y: 0.36310405, z: -0.32400283, w: -0.008378334}
        outSlope: {x: -0.014001144, y: 0.36310405, z: -0.32400283, w: -0.008378334}
        tangentMode: 0
        weightedMode: 0
        inWeight: {x: 0.33333334, y: 0.33333334, z: 0.33333334, w: 0.33333334}
        outWeight: {x: 0.33333334, y: 0.33333334, z: 0.33333334, w: 0.33333334}
      - serializedVersion: 3
        time: 3.1666667
        value: {x: -0.7220123, y: 0.049078707, z: 0.03750426, w: 0.68911755}
        inSlope: {x: -0.108857185, y: -0.027204756, z: -0.023449197, w: -0.11078837}
        outSlope: {x: -0.108857185, y: -0.027204756, z: -0.023449197, w: -0.11078837}
        tangentMode: 0
        weightedMode: 0
        inWeight: {x: 0.33333334, y: 0.33333334, z: 0.33333334, w: 0.33333334}
        outWeight: {x: 0.33333334, y: 0.33333334, z: 0.33333334, w: 0.33333334}
      - serializedVersion: 3
        time: 3.3666668
        value: {x: -0.7229604, y: 0.066766456, z: 0.01962129, w: 0.6873758}
        inSlope: {x: 0.092146486, y: 0.17774123, z: -0.14288089, w: 0.083845936}
        outSlope: {x: 0.092146486, y: 0.17774123, z: -0.14288089, w: 0.083845936}
        tangentMode: 0
        weightedMode: 0
        inWeight: {x: 0.33333334, y: 0.33333334, z: 0.33333334, w: 0.33333334}
        outWeight: {x: 0.33333334, y: 0.33333334, z: 0.33333334, w: 0.33333334}
      - serializedVersion: 3
        time: 3.6000001
        value: {x: -0.7247278, y: 0.07301452, z: 0.015830237, w: 0.684973}
        inSlope: {x: -0.06965614, y: -0.099645615, z: 0.09529683, w: -0.065387845}
        outSlope: {x: -0.06965614, y: -0.099645615, z: 0.09529683, w: -0.065387845}
        tangentMode: 0
        weightedMode: 0
        inWeight: {x: 0.33333334, y: 0.33333334, z: 0.33333334, w: 0.33333334}
        outWeight: {x: 0.33333334, y: 0.33333334, z: 0.33333334, w: 0.33333334}
      - serializedVersion: 3
        time: 3.7333336
        value: {x: -0.7227536, y: 0.03425187, z: 0.022928385, w: 0.6898756}
        inSlope: {x: 0.105992064, y: -0.5491656, z: -0.14297836, w: 0.14222248}
        outSlope: {x: 0.105992064, y: -0.5491656, z: -0.14297836, w: 0.14222248}
        tangentMode: 0
        weightedMode: 0
        inWeight: {x: 0.33333334, y: 0.33333334, z: 0.33333334, w: 0.33333334}
        outWeight: {x: 0.33333334, y: 0.33333334, z: 0.33333334, w: 0.33333334}
      - serializedVersion: 3
        time: 3.8333335
        value: {x: -0.7095482, y: -0.006012517, z: 0.009038562, w: 0.7045733}
        inSlope: {x: 0.2542808, y: -0.1066036, z: -0.04795494, w: 0.25453115}
        outSlope: {x: 0.2542808, y: -0.1066036, z: -0.04795494, w: 0.25453115}
        tangentMode: 0
        weightedMode: 0
        inWeight: {x: 0.33333334, y: 0.33333334, z: 0.33333334, w: 0.33333334}
        outWeight: {x: 0.33333334, y: 0.33333334, z: 0.33333334, w: 0.33333334}
      - serializedVersion: 3
        time: 3.9333336
        value: {x: -0.69273984, y: -0.005571782, z: 0.005677843, w: 0.7211437}
        inSlope: {x: -0.035697483, y: 0.03176722, z: -0.033313643, w: -0.033836033}
        outSlope: {x: -0.035697483, y: 0.03176722, z: -0.033313643, w: -0.033836033}
        tangentMode: 0
        weightedMode: 0
        inWeight: {x: 0.33333334, y: 0.33333334, z: 0.33333334, w: 0.33333334}
        outWeight: {x: 0.33333334, y: 0.33333334, z: 0.33333334, w: 0.33333334}
      - serializedVersion: 3
        time: 4.166667
        value: {x: -0.70710593, y: -0.00000820404, z: -0.0000041620565, w: 0.7071076}
        inSlope: {x: -0.019140262, y: 0.00538802, z: -0.005252866, w: -0.01912238}
        outSlope: {x: -0.019140262, y: 0.00538802, z: -0.005252866, w: -0.01912238}
        tangentMode: 0
        weightedMode: 0
        inWeight: {x: 0.33333334, y: 0.33333334, z: 0.33333334, w: 0.33333334}
        outWeight: {x: 0.33333334, y: 0.33333334, z: 0.33333334, w: 0.33333334}
      m_PreInfinity: 2
      m_PostInfinity: 2
      m_RotationOrder: 4
    path: "cocon.\u04325"
  - curve:
      serializedVersion: 2
      m_Curve:
      - serializedVersion: 3
        time: 0
        value: {x: 0.010188979, y: 0.004307976, z: -0.0026075244, w: 0.99993545}
        inSlope: {x: 0, y: 0, z: 0, w: 0}
        outSlope: {x: 0, y: 0, z: 0, w: 0}
        tangentMode: 0
        weightedMode: 0
        inWeight: {x: 0.33333334, y: 0.33333334, z: 0.33333334, w: 0.33333334}
        outWeight: {x: 0.33333334, y: 0.33333334, z: 0.33333334, w: 0.33333334}
      - serializedVersion: 3
        time: 1.6333334
        value: {x: 0.010188979, y: 0.004307976, z: -0.0026075244, w: 0.99993545}
        inSlope: {x: 0, y: 0, z: 0, w: 0}
        outSlope: {x: 0, y: 0, z: 0, w: 0}
        tangentMode: 0
        weightedMode: 0
        inWeight: {x: 0.33333334, y: 0.33333334, z: 0.33333334, w: 0.33333334}
        outWeight: {x: 0.33333334, y: 0.33333334, z: 0.33333334, w: 0.33333334}
      - serializedVersion: 3
        time: 3.1666667
        value: {x: 0.010188979, y: 0.004307976, z: -0.0026075244, w: 0.99993545}
        inSlope: {x: 0, y: 0, z: 0, w: 0}
        outSlope: {x: 0, y: 0, z: 0, w: 0}
        tangentMode: 0
        weightedMode: 0
        inWeight: {x: 0.33333334, y: 0.33333334, z: 0.33333334, w: 0.33333334}
        outWeight: {x: 0.33333334, y: 0.33333334, z: 0.33333334, w: 0.33333334}
      - serializedVersion: 3
        time: 3.3666668
        value: {x: -0.02634865, y: -0.03799727, z: -0.0012055967, w: 0.9989297}
        inSlope: {x: -0.34909907, y: -0.40627563, z: -0.0016825569, w: -0.024937415}
        outSlope: {x: -0.34909907, y: -0.40627563, z: -0.0016825569, w: -0.024937415}
        tangentMode: 0
        weightedMode: 0
        inWeight: {x: 0.33333334, y: 0.33333334, z: 0.33333334, w: 0.33333334}
        outWeight: {x: 0.33333334, y: 0.33333334, z: 0.33333334, w: 0.33333334}
      - serializedVersion: 3
        time: 3.5666668
        value: {x: -0.0840898, y: -0.105775245, z: -0.0054387697, w: 0.99081326}
        inSlope: {x: -0.10477099, y: -0.12405273, z: -0.014709604, w: -0.021789392}
        outSlope: {x: -0.10477099, y: -0.12405273, z: -0.014709604, w: -0.021789392}
        tangentMode: 0
        weightedMode: 0
        inWeight: {x: 0.33333334, y: 0.33333334, z: 0.33333334, w: 0.33333334}
        outWeight: {x: 0.33333334, y: 0.33333334, z: 0.33333334, w: 0.33333334}
      - serializedVersion: 3
        time: 3.6333334
        value: {x: -0.069053486, y: -0.091128975, z: -0.0058468254, w: 0.9934249}
        inSlope: {x: 0.73150873, y: 0.7208063, z: -0.029648798, w: 0.105981335}
        outSlope: {x: 0.73150873, y: 0.7208063, z: -0.029648798, w: 0.105981335}
        tangentMode: 0
        weightedMode: 0
        inWeight: {x: 0.33333334, y: 0.33333334, z: 0.33333334, w: 0.33333334}
        outWeight: {x: 0.33333334, y: 0.33333334, z: 0.33333334, w: 0.33333334}
      - serializedVersion: 3
        time: 3.7000003
        value: {x: -0.0197621, y: -0.043176904, z: -0.009528918, w: 0.99882656}
        inSlope: {x: 0.23849195, y: 0.08673097, z: -0.0072390083, w: 0.011883842}
        outSlope: {x: 0.23849195, y: 0.08673097, z: -0.0072390083, w: 0.011883842}
        tangentMode: 0
        weightedMode: 0
        inWeight: {x: 0.33333334, y: 0.33333334, z: 0.33333334, w: 0.33333334}
        outWeight: {x: 0.33333334, y: 0.33333334, z: 0.33333334, w: 0.33333334}
      - serializedVersion: 3
        time: 3.8000002
        value: {x: -0.0253741, y: -0.08542042, z: -0.0044795284, w: 0.9960118}
        inSlope: {x: 0.008408453, y: -0.10915014, z: 0.022486795, w: -0.008241542}
        outSlope: {x: 0.008408453, y: -0.10915014, z: 0.022486795, w: -0.008241542}
        tangentMode: 0
        weightedMode: 0
        inWeight: {x: 0.33333334, y: 0.33333334, z: 0.33333334, w: 0.33333334}
        outWeight: {x: 0.33333334, y: 0.33333334, z: 0.33333334, w: 0.33333334}
      - serializedVersion: 3
        time: 4
        value: {x: 0.00815385, y: -0.022678565, z: -0.0023636757, w: 0.9997068}
        inSlope: {x: 0.10591163, y: 0.19788633, z: 0.000664853, w: 0.0043684407}
        outSlope: {x: 0.10591163, y: 0.19788633, z: 0.000664853, w: 0.0043684407}
        tangentMode: 0
        weightedMode: 0
        inWeight: {x: 0.33333334, y: 0.33333334, z: 0.33333334, w: 0.33333334}
        outWeight: {x: 0.33333334, y: 0.33333334, z: 0.33333334, w: 0.33333334}
      - serializedVersion: 3
        time: 4.033334
        value: {x: 0.010127514, y: -0.01899139, z: -0.0023699342, w: 0.9997656}
        inSlope: {x: 0.059209112, y: 0.11061377, z: -0.00018775213, w: 0.0017630819}
        outSlope: {x: 0.059209112, y: 0.11061377, z: -0.00018775213, w: 0.0017630819}
        tangentMode: 0
        weightedMode: 0
        inWeight: {x: 0.33333334, y: 0.33333334, z: 0.33333334, w: 0.33333334}
        outWeight: {x: 0.33333334, y: 0.33333334, z: 0.33333334, w: 0.33333334}
      m_PreInfinity: 2
      m_PostInfinity: 2
      m_RotationOrder: 4
    path: "cocon.\u04325/krilo_v3"
  - curve:
      serializedVersion: 2
      m_Curve:
      - serializedVersion: 3
        time: 0
        value: {x: 0.010347708, y: 0.14107746, z: -0.0033759705, w: 0.98993874}
        inSlope: {x: -0.00000041909513, y: -0.00080600375, z: 0.000007976778, w: 0.00011444091}
        outSlope: {x: -0.00000041909513, y: -0.00080600375, z: 0.000007976778, w: 0.00011444091}
        tangentMode: 0
        weightedMode: 0
        inWeight: {x: 0.33333334, y: 0.33333334, z: 0.33333334, w: 0.33333334}
        outWeight: {x: 0.33333334, y: 0.33333334, z: 0.33333334, w: 0.33333334}
      - serializedVersion: 3
        time: 1.6333334
        value: {x: 0.0103119, y: 0.09375904, z: -0.0029055525, w: 0.9955373}
        inSlope: {x: -0.000047315887, y: -0.04721564, z: 0.0004716292, w: 0.004448895}
        outSlope: {x: -0.000047315887, y: -0.04721564, z: 0.0004716292, w: 0.004448895}
        tangentMode: 0
        weightedMode: 0
        inWeight: {x: 0.33333334, y: 0.33333334, z: 0.33333334, w: 0.33333334}
        outWeight: {x: 0.33333334, y: 0.33333334, z: 0.33333334, w: 0.33333334}
      - serializedVersion: 3
        time: 3.266667
        value: {x: 0.010214027, y: 0.02224377, z: -0.0021861494, w: 0.999698}
        inSlope: {x: -0.000050934083, y: -0.029388824, z: 0.00029770104, w: 0.0006562477}
        outSlope: {x: -0.000050934083, y: -0.029388824, z: 0.00029770104, w: 0.0006562477}
        tangentMode: 0
        weightedMode: 0
        inWeight: {x: 0.33333334, y: 0.33333334, z: 0.33333334, w: 0.33333334}
        outWeight: {x: 0.33333334, y: 0.33333334, z: 0.33333334, w: 0.33333334}
      - serializedVersion: 3
        time: 4
        value: {x: 0.010193256, y: 0.01065686, z: -0.0020686446, w: 0.99988914}
        inSlope: {x: -0.0000015087548, y: -0.00081394525, z: 0.000008263227, w: 0.0000089407695}
        outSlope: {x: -0.0000015087548, y: -0.00081394525, z: 0.000008263227, w: 0.0000089407695}
        tangentMode: 0
        weightedMode: 0
        inWeight: {x: 0.33333334, y: 0.33333334, z: 0.33333334, w: 0.33333334}
        outWeight: {x: 0.33333334, y: 0.33333334, z: 0.33333334, w: 0.33333334}
      m_PreInfinity: 2
      m_PostInfinity: 2
      m_RotationOrder: 4
    path: "cocon.\u04325/Head_gusenica"
  - curve:
      serializedVersion: 2
      m_Curve:
      - serializedVersion: 3
        time: 0.033333335
        value: {x: -0.71423614, y: -0.0060727196, z: 0.0089982245, w: 0.69982064}
        inSlope: {x: -0.036866065, y: -0.0005069934, z: 0.01082126, w: -0.037838813}
        outSlope: {x: -0.036866065, y: -0.0005069934, z: 0.01082126, w: -0.037838813}
        tangentMode: 0
        weightedMode: 0
        inWeight: {x: 0.33333334, y: 0.33333334, z: 0.33333334, w: 0.33333334}
        outWeight: {x: 0.33333334, y: 0.33333334, z: 0.33333334, w: 0.33333334}
      - serializedVersion: 3
        time: 0.36666667
        value: {x: -0.7444895, y: -0.05256259, z: 0.07166898, w: 0.66169184}
        inSlope: {x: 0.09694035, y: -0.3901105, z: 0.443711, w: 0.029102841}
        outSlope: {x: 0.09694035, y: -0.3901105, z: 0.443711, w: 0.029102841}
        tangentMode: 0
        weightedMode: 0
        inWeight: {x: 0.33333334, y: 0.33333334, z: 0.33333334, w: 0.33333334}
        outWeight: {x: 0.33333334, y: 0.33333334, z: 0.33333334, w: 0.33333334}
      - serializedVersion: 3
        time: 0.6
        value: {x: -0.697385, y: -0.101661235, z: 0.14504465, w: 0.6944647}
        inSlope: {x: 0.19594076, y: 0.16189766, z: -0.020519085, w: 0.22446156}
        outSlope: {x: 0.19594076, y: 0.16189766, z: -0.020519085, w: 0.22446156}
        tangentMode: 0
        weightedMode: 0
        inWeight: {x: 0.33333334, y: 0.33333334, z: 0.33333334, w: 0.33333334}
        outWeight: {x: 0.33333334, y: 0.33333334, z: 0.33333334, w: 0.33333334}
      - serializedVersion: 3
        time: 0.86666673
        value: {x: -0.6798922, y: -0.015207542, z: 0.09384999, w: 0.7271228}
        inSlope: {x: -0.060302325, y: 0.375417, z: -0.20567536, w: -0.021979818}
        outSlope: {x: -0.060302325, y: 0.375417, z: -0.20567536, w: -0.021979818}
        tangentMode: 0
        weightedMode: 0
        inWeight: {x: 0.33333334, y: 0.33333334, z: 0.33333334, w: 0.33333334}
        outWeight: {x: 0.33333334, y: 0.33333334, z: 0.33333334, w: 0.33333334}
      - serializedVersion: 3
        time: 1.2
        value: {x: -0.6971249, y: 0.105427265, z: 0.03282983, w: 0.70839554}
        inSlope: {x: -0.0069165295, y: 0.19866717, z: -0.11095479, w: -0.030710429}
        outSlope: {x: -0.0069165295, y: 0.19866717, z: -0.11095479, w: -0.030710429}
        tangentMode: 0
        weightedMode: 0
        inWeight: {x: 0.33333334, y: 0.33333334, z: 0.33333334, w: 0.33333334}
        outWeight: {x: 0.33333334, y: 0.33333334, z: 0.33333334, w: 0.33333334}
      - serializedVersion: 3
        time: 1.5333334
        value: {x: -0.69331235, y: 0.06447397, z: 0.062065262, w: 0.71505874}
        inSlope: {x: 0.033847723, y: -0.41908014, z: 0.30460572, w: 0.043028038}
        outSlope: {x: 0.033847723, y: -0.41908014, z: 0.30460572, w: 0.043028038}
        tangentMode: 0
        weightedMode: 0
        inWeight: {x: 0.33333334, y: 0.33333334, z: 0.33333334, w: 0.33333334}
        outWeight: {x: 0.33333334, y: 0.33333334, z: 0.33333334, w: 0.33333334}
      - serializedVersion: 3
        time: 1.7333335
        value: {x: -0.6925105, y: -0.05005128, z: 0.14307205, w: 0.70530456}
        inSlope: {x: -0.037879013, y: -0.47025752, z: 0.28113607, w: -0.12499618}
        outSlope: {x: -0.037879013, y: -0.47025752, z: 0.28113607, w: -0.12499618}
        tangentMode: 0
        weightedMode: 0
        inWeight: {x: 0.33333334, y: 0.33333334, z: 0.33333334, w: 0.33333334}
        outWeight: {x: 0.33333334, y: 0.33333334, z: 0.33333334, w: 0.33333334}
      - serializedVersion: 3
        time: 1.8666668
        value: {x: -0.6857841, y: -0.057889145, z: 0.13928373, w: 0.7120035}
        inSlope: {x: 0.22191332, y: 0.33887416, z: -0.31060055, w: 0.29928875}
        outSlope: {x: 0.22191332, y: 0.33887416, z: -0.31060055, w: 0.29928875}
        tangentMode: 0
        weightedMode: 0
        inWeight: {x: 0.33333334, y: 0.33333334, z: 0.33333334, w: 0.33333334}
        outWeight: {x: 0.33333334, y: 0.33333334, z: 0.33333334, w: 0.33333334}
      - serializedVersion: 3
        time: 2
        value: {x: -0.66119593, y: 0.0048634657, z: 0.0773298, w: 0.7462013}
        inSlope: {x: -0.013677159, y: 0.4664563, z: -0.50943774, w: 0.038468547}
        outSlope: {x: -0.013677159, y: 0.4664563, z: -0.50943774, w: 0.038468547}
        tangentMode: 0
        weightedMode: 0
        inWeight: {x: 0.33333334, y: 0.33333334, z: 0.33333334, w: 0.33333334}
        outWeight: {x: 0.33333334, y: 0.33333334, z: 0.33333334, w: 0.33333334}
      - serializedVersion: 3
        time: 2.3666668
        value: {x: -0.71823704, y: 0.0700154, z: 0.023677606, w: 0.6918618}
        inSlope: {x: -0.15060261, y: -0.22678524, z: 0.27367884, w: -0.14339997}
        outSlope: {x: -0.15060261, y: -0.22678524, z: 0.27367884, w: -0.14339997}
        tangentMode: 0
        weightedMode: 0
        inWeight: {x: 0.33333334, y: 0.33333334, z: 0.33333334, w: 0.33333334}
        outWeight: {x: 0.33333334, y: 0.33333334, z: 0.33333334, w: 0.33333334}
      - serializedVersion: 3
        time: 2.6333334
        value: {x: -0.7185172, y: -0.04717721, z: 0.12984556, w: 0.6816505}
        inSlope: {x: 0.12369466, y: -0.49941838, z: 0.35765, w: 0.02884182}
        outSlope: {x: 0.12369466, y: -0.49941838, z: 0.35765, w: 0.02884182}
        tangentMode: 0
        weightedMode: 0
        inWeight: {x: 0.33333334, y: 0.33333334, z: 0.33333334, w: 0.33333334}
        outWeight: {x: 0.33333334, y: 0.33333334, z: 0.33333334, w: 0.33333334}
      - serializedVersion: 3
        time: 2.8333335
        value: {x: -0.7043552, y: -0.065892115, z: 0.14122081, w: 0.69253075}
        inSlope: {x: -0.049053177, y: 0.52946216, z: -0.4365551, w: 0.08545347}
        outSlope: {x: -0.049053177, y: 0.52946216, z: -0.4365551, w: 0.08545347}
        tangentMode: 0
        weightedMode: 0
        inWeight: {x: 0.33333334, y: 0.33333334, z: 0.33333334, w: 0.33333334}
        outWeight: {x: 0.33333334, y: 0.33333334, z: 0.33333334, w: 0.33333334}
      - serializedVersion: 3
        time: 3.0000002
        value: {x: -0.710669, y: 0.040712804, z: 0.050132878, w: 0.70055604}
        inSlope: {x: -0.014001144, y: 0.36310405, z: -0.32400283, w: -0.008378334}
        outSlope: {x: -0.014001144, y: 0.36310405, z: -0.32400283, w: -0.008378334}
        tangentMode: 0
        weightedMode: 0
        inWeight: {x: 0.33333334, y: 0.33333334, z: 0.33333334, w: 0.33333334}
        outWeight: {x: 0.33333334, y: 0.33333334, z: 0.33333334, w: 0.33333334}
      - serializedVersion: 3
        time: 3.1666667
        value: {x: -0.7220123, y: 0.049078707, z: 0.03750426, w: 0.68911755}
        inSlope: {x: -0.108857185, y: -0.027204756, z: -0.023449197, w: -0.11078837}
        outSlope: {x: -0.108857185, y: -0.027204756, z: -0.023449197, w: -0.11078837}
        tangentMode: 0
        weightedMode: 0
        inWeight: {x: 0.33333334, y: 0.33333334, z: 0.33333334, w: 0.33333334}
        outWeight: {x: 0.33333334, y: 0.33333334, z: 0.33333334, w: 0.33333334}
      - serializedVersion: 3
        time: 3.3666668
        value: {x: -0.7229604, y: 0.066766456, z: 0.01962129, w: 0.6873758}
        inSlope: {x: 0.092146486, y: 0.17774123, z: -0.14288089, w: 0.083845936}
        outSlope: {x: 0.092146486, y: 0.17774123, z: -0.14288089, w: 0.083845936}
        tangentMode: 0
        weightedMode: 0
        inWeight: {x: 0.33333334, y: 0.33333334, z: 0.33333334, w: 0.33333334}
        outWeight: {x: 0.33333334, y: 0.33333334, z: 0.33333334, w: 0.33333334}
      - serializedVersion: 3
        time: 3.6000001
        value: {x: -0.7247278, y: 0.07301452, z: 0.015830237, w: 0.684973}
        inSlope: {x: -0.06965614, y: -0.099645615, z: 0.09529683, w: -0.065387845}
        outSlope: {x: -0.06965614, y: -0.099645615, z: 0.09529683, w: -0.065387845}
        tangentMode: 0
        weightedMode: 0
        inWeight: {x: 0.33333334, y: 0.33333334, z: 0.33333334, w: 0.33333334}
        outWeight: {x: 0.33333334, y: 0.33333334, z: 0.33333334, w: 0.33333334}
      - serializedVersion: 3
        time: 3.7333336
        value: {x: -0.7227536, y: 0.03425187, z: 0.022928385, w: 0.6898756}
        inSlope: {x: 0.105992064, y: -0.5491656, z: -0.14297836, w: 0.14222248}
        outSlope: {x: 0.105992064, y: -0.5491656, z: -0.14297836, w: 0.14222248}
        tangentMode: 0
        weightedMode: 0
        inWeight: {x: 0.33333334, y: 0.33333334, z: 0.33333334, w: 0.33333334}
        outWeight: {x: 0.33333334, y: 0.33333334, z: 0.33333334, w: 0.33333334}
      - serializedVersion: 3
        time: 3.8333335
        value: {x: -0.7095482, y: -0.006012517, z: 0.009038562, w: 0.7045733}
        inSlope: {x: 0.2542808, y: -0.1066036, z: -0.04795494, w: 0.25453115}
        outSlope: {x: 0.2542808, y: -0.1066036, z: -0.04795494, w: 0.25453115}
        tangentMode: 0
        weightedMode: 0
        inWeight: {x: 0.33333334, y: 0.33333334, z: 0.33333334, w: 0.33333334}
        outWeight: {x: 0.33333334, y: 0.33333334, z: 0.33333334, w: 0.33333334}
      - serializedVersion: 3
        time: 3.9333336
        value: {x: -0.69273984, y: -0.005571782, z: 0.005677843, w: 0.7211437}
        inSlope: {x: -0.035697483, y: 0.03176722, z: -0.033313643, w: -0.033836033}
        outSlope: {x: -0.035697483, y: 0.03176722, z: -0.033313643, w: -0.033836033}
        tangentMode: 0
        weightedMode: 0
        inWeight: {x: 0.33333334, y: 0.33333334, z: 0.33333334, w: 0.33333334}
        outWeight: {x: 0.33333334, y: 0.33333334, z: 0.33333334, w: 0.33333334}
      - serializedVersion: 3
        time: 4.166667
        value: {x: -0.70710593, y: -0.00000820404, z: -0.0000041620565, w: 0.7071076}
        inSlope: {x: -0.019140262, y: 0.00538802, z: -0.005252866, w: -0.01912238}
        outSlope: {x: -0.019140262, y: 0.00538802, z: -0.005252866, w: -0.01912238}
        tangentMode: 0
        weightedMode: 0
        inWeight: {x: 0.33333334, y: 0.33333334, z: 0.33333334, w: 0.33333334}
        outWeight: {x: 0.33333334, y: 0.33333334, z: 0.33333334, w: 0.33333334}
      m_PreInfinity: 2
      m_PostInfinity: 2
      m_RotationOrder: 4
    path: "cocon.\u0432006"
  m_CompressedRotationCurves: []
  m_EulerCurves: []
  m_PositionCurves:
  - curve:
      serializedVersion: 2
      m_Curve:
      - serializedVersion: 3
        time: 0
        value: {x: -0.0014129877, y: 0.010296678, z: -0.063014604}
        inSlope: {x: -0.000000018308137, y: -0.00000012089252, z: -0.00000006130759}
        outSlope: {x: -0.000000018308137, y: -0.00000012089252, z: -0.00000006130759}
        tangentMode: 0
        weightedMode: 0
        inWeight: {x: 0.33333334, y: 0.33333334, z: 0.33333334}
        outWeight: {x: 0.33333334, y: 0.33333334, z: 0.33333334}
      - serializedVersion: 3
        time: 1.6333334
        value: {x: 0.00017313326, y: 0.0015043177, z: -0.065267295}
        inSlope: {x: 0.002512122, y: -0.00798828, z: -0.004133718}
        outSlope: {x: 0.00251211, y: -0.007988337, z: -0.0041355984}
        tangentMode: 0
        weightedMode: 0
        inWeight: {x: 0.33333334, y: 0.33333334, z: 0.33333334}
        outWeight: {x: 0.33333334, y: 0.33333334, z: 0.33333334}
      - serializedVersion: 3
        time: 3.2
        value: {x: 0.008104835, y: -0.006755323, z: -0.07994072}
        inSlope: {x: 0.008140494, y: 0.0000000102377085, z: -0.01586901}
        outSlope: {x: 0.008139683, y: -0.0000003462259, z: -0.01586748}
        tangentMode: 0
        weightedMode: 0
        inWeight: {x: 0.33333334, y: 0.33333334, z: 0.33333334}
        outWeight: {x: 0.33333334, y: 0.33333334, z: 0.33333334}
      - serializedVersion: 3
        time: 3.4666667
        value: {x: 0.026806345, y: 0.018221011, z: -0.12547356}
        inSlope: {x: 0.058855545, y: 0.00000028047262, z: -0.000002063893}
        outSlope: {x: 0.05885436, y: 0.0000003691673, z: -0.0000003701613}
        tangentMode: 0
        weightedMode: 0
        inWeight: {x: 0.33333334, y: 0.33333334, z: 0.33333334}
        outWeight: {x: 0.33333334, y: 0.33333334, z: 0.33333334}
      - serializedVersion: 3
        time: 3.7
        value: {x: 0.037532635, y: 0.011712799, z: -0.114078134}
        inSlope: {x: 0.095118694, y: -0.00000009063778, z: -0.00000065626654}
        outSlope: {x: 0.095123954, y: 0.0000027439094, z: -0.00000405304}
        tangentMode: 0
        weightedMode: 0
        inWeight: {x: 0.33333334, y: 0.33333334, z: 0.33333334}
        outWeight: {x: 0.33333334, y: 0.33333334, z: 0.33333334}
      - serializedVersion: 3
        time: 3.8
        value: {x: 0.058512874, y: 0.019869875, z: -0.1353305}
        inSlope: {x: 0.000012774952, y: 0.000005974547, z: -0.021173242}
        outSlope: {x: -0.0000051841266, y: -0.000001552187, z: -0.021156995}
        tangentMode: 0
        weightedMode: 0
        inWeight: {x: 0.33333334, y: 0.33333334, z: 0.33333334}
        outWeight: {x: 0.33333334, y: 0.33333334, z: 0.33333334}
      - serializedVersion: 3
        time: 3.8666666
        value: {x: 0.055255175, y: 0.017687809, z: -0.1358007}
        inSlope: {x: -0.000008896749, y: -0.047173936, z: -0.0031709108}
        outSlope: {x: 0.0000012441972, y: -0.04716931, z: -0.0031718733}
        tangentMode: 0
        weightedMode: 0
        inWeight: {x: 0.33333334, y: 0.33333334, z: 0.33333334}
        outWeight: {x: 0.33333334, y: 0.33333334, z: 0.33333334}
      - serializedVersion: 3
        time: 4.0333333
        value: {x: 0.061424766, y: 0.0088632675, z: -0.13607033}
        inSlope: {x: 0.00000093085566, y: -0.00000035687768, z: 0.000000980963}
        outSlope: {x: 0.0000005047208, y: 0.00000061286755, z: -0.00000015130834}
        tangentMode: 0
        weightedMode: 0
        inWeight: {x: 0.33333334, y: 0.33333334, z: 0.33333334}
        outWeight: {x: 0.33333334, y: 0.33333334, z: 0.33333334}
      - serializedVersion: 3
        time: 4.1666665
        value: {x: 0.060329985, y: 0.010655871, z: -0.13360451}
        inSlope: {x: 0.0000006477885, y: -0.000000021488276, z: 0.0000002982836}
        outSlope: {x: 0.0000006477885, y: -0.000000021488276, z: 0.0000002982836}
        tangentMode: 0
        weightedMode: 0
        inWeight: {x: 0.33333334, y: 0.33333334, z: 0.33333334}
        outWeight: {x: 0.33333334, y: 0.33333334, z: 0.33333334}
      m_PreInfinity: 2
      m_PostInfinity: 2
      m_RotationOrder: 4
    path: "cocon.\u04325/krilo_v3"
  - curve:
      serializedVersion: 2
      m_Curve:
      - serializedVersion: 3
        time: 0
        value: {x: -0.01164943, y: 0.0055228043, z: -0.10010513}
        inSlope: {x: 0.00000007663072, y: 0.00000013198714, z: -0.00030584334}
        outSlope: {x: 0.00000007663072, y: 0.00000013198714, z: -0.00030584334}
        tangentMode: 0
        weightedMode: 0
        inWeight: {x: 0.33333334, y: 0.33333334, z: 0.33333334}
        outWeight: {x: 0.33333334, y: 0.33333334, z: 0.33333334}
      - serializedVersion: 3
        time: 1.6666666
        value: {x: -0.009611276, y: 0.002626083, z: -0.100614786}
        inSlope: {x: 0.002060466, y: -0.0029285692, z: -0.00030612975}
        outSlope: {x: 0.0020604322, y: -0.0029284689, z: -0.00030584255}
        tangentMode: 0
        weightedMode: 0
        inWeight: {x: 0.33333334, y: 0.33333334, z: 0.33333334}
        outWeight: {x: 0.33333334, y: 0.33333334, z: 0.33333334}
      - serializedVersion: 3
        time: 3.1
        value: {x: -0.0065070665, y: -0.001785766, z: -0.10105308}
        inSlope: {x: 0.001986253, y: -0.002823051, z: -0.00030584366}
        outSlope: {x: 0.0019864193, y: -0.00282324, z: -0.08519845}
        tangentMode: 0
        weightedMode: 0
        inWeight: {x: 0.33333334, y: 0.33333334, z: 0.33333334}
        outWeight: {x: 0.33333334, y: 0.33333334, z: 0.33333334}
      - serializedVersion: 3
        time: 3.1666667
        value: {x: -0.0063761123, y: -0.0019718828, z: -0.10861969}
        inSlope: {x: 0.0019415872, y: -0.002759362, z: -0.1417993}
        outSlope: {x: 0.0019416246, y: -0.0027593337, z: -0.19823475}
        tangentMode: 0
        weightedMode: 0
        inWeight: {x: 0.33333334, y: 0.33333334, z: 0.33333334}
        outWeight: {x: 0.33333334, y: 0.33333334, z: 0.33333334}
      - serializedVersion: 3
        time: 3.2333333
        value: {x: -0.0062482827, y: -0.0021535603, z: -0.12371132}
        inSlope: {x: 0.0018930204, y: -0.002690292, z: -0.25451455}
        outSlope: {x: 0.0018929436, y: -0.002690256, z: -0.1553125}
        tangentMode: 0
        weightedMode: 0
        inWeight: {x: 0.33333334, y: 0.33333334, z: 0.33333334}
        outWeight: {x: 0.33333334, y: 0.33333334, z: 0.33333334}
      - serializedVersion: 3
        time: 3.3
        value: {x: -0.0061238236, y: -0.0023304485, z: -0.13406555}
        inSlope: {x: 0.0018402413, y: -0.0026155498, z: -0.15531479}
        outSlope: {x: 0.0018403808, y: -0.0026155943, z: -0.36657292}
        tangentMode: 0
        weightedMode: 0
        inWeight: {x: 0.33333334, y: 0.33333334, z: 0.33333334}
        outWeight: {x: 0.33333334, y: 0.33333334, z: 0.33333334}
      - serializedVersion: 3
        time: 3.4
        value: {x: -0.005943991, y: -0.0025860348, z: -0.17629623}
        inSlope: {x: 0.0017547733, y: -0.002493987, z: -0.4779824}
        outSlope: {x: 0.0017548397, y: -0.0024942867, z: -0.5334474}
        tangentMode: 0
        weightedMode: 0
        inWeight: {x: 0.33333334, y: 0.33333334, z: 0.33333334}
        outWeight: {x: 0.33333334, y: 0.33333334, z: 0.33333334}
      - serializedVersion: 3
        time: 3.4333334
        value: {x: -0.005885998, y: -0.0026684566, z: -0.19407779}
        inSlope: {x: 0.0017246115, y: -0.002451116, z: -0.5334474}
        outSlope: {x: 0.0017243987, y: -0.0024509812, z: -0.2943732}
        tangentMode: 0
        weightedMode: 0
        inWeight: {x: 0.33333334, y: 0.33333334, z: 0.33333334}
        outWeight: {x: 0.33333334, y: 0.33333334, z: 0.33333334}
      - serializedVersion: 3
        time: 3.4666667
        value: {x: -0.005829033, y: -0.0027494177, z: -0.20389022}
        inSlope: {x: 0.0016931487, y: -0.0024065757, z: -0.2943732}
        outSlope: {x: 0.0016931095, y: -0.002406379, z: -0.5936399}
        tangentMode: 0
        weightedMode: 0
        inWeight: {x: 0.33333334, y: 0.33333334, z: 0.33333334}
        outWeight: {x: 0.33333334, y: 0.33333334, z: 0.33333334}
      - serializedVersion: 3
        time: 3.5
        value: {x: -0.005773127, y: -0.0028288746, z: -0.2236782}
        inSlope: {x: 0.0016608379, y: -0.0023605258, z: -0.5936399}
        outSlope: {x: 0.001660935, y: -0.0023606336, z: -0.34461513}
        tangentMode: 0
        weightedMode: 0
        inWeight: {x: 0.33333334, y: 0.33333334, z: 0.33333334}
        outWeight: {x: 0.33333334, y: 0.33333334, z: 0.33333334}
      - serializedVersion: 3
        time: 3.5333333
        value: {x: -0.0057234443, y: -0.0028994854, z: -0.23516536}
        inSlope: {x: 0.0013376221, y: -0.0019010814, z: -0.34461513}
        outSlope: {x: 0.0013376042, y: -0.0019010303, z: -0.5444349}
        tangentMode: 0
        weightedMode: 0
        inWeight: {x: 0.33333334, y: 0.33333334, z: 0.33333334}
        outWeight: {x: 0.33333334, y: 0.33333334, z: 0.33333334}
      - serializedVersion: 3
        time: 3.5666666
        value: {x: -0.005682777, y: -0.0029572828, z: -0.25331318}
        inSlope: {x: 0.0011201323, y: -0.0015917672, z: -0.5444349}
        outSlope: {x: 0.0011198921, y: -0.0015918561, z: -0.37411398}
        tangentMode: 0
        weightedMode: 0
        inWeight: {x: 0.33333334, y: 0.33333334, z: 0.33333334}
        outWeight: {x: 0.33333334, y: 0.33333334, z: 0.33333334}
      - serializedVersion: 3
        time: 3.6333334
        value: {x: -0.0056144046, y: -0.0030544566, z: -0.2782541}
        inSlope: {x: 0.0010014402, y: -0.001423378, z: -0.37411132}
        outSlope: {x: 0.0010014508, y: -0.0014233107, z: -0.10007181}
        tangentMode: 0
        weightedMode: 0
        inWeight: {x: 0.33333334, y: 0.33333334, z: 0.33333334}
        outWeight: {x: 0.33333334, y: 0.33333334, z: 0.33333334}
      - serializedVersion: 3
        time: 3.7333333
        value: {x: -0.00555858, y: -0.0031337976, z: -0.29168183}
        inSlope: {x: 0.00034364234, y: -0.0004884523, z: -0.20409411}
        outSlope: {x: 0.00034365169, y: -0.0004884962, z: -0.8432061}
        tangentMode: 0
        weightedMode: 0
        inWeight: {x: 0.33333334, y: 0.33333334, z: 0.33333334}
        outWeight: {x: 0.33333334, y: 0.33333334, z: 0.33333334}
      - serializedVersion: 3
        time: 3.7666667
        value: {x: -0.005546292, y: -0.0031512629, z: -0.31978866}
        inSlope: {x: 0.00038350173, y: -0.0005451207, z: -0.8432061}
        outSlope: {x: 0.0003835996, y: -0.0005450823, z: -0.3162715}
        tangentMode: 0
        weightedMode: 0
        inWeight: {x: 0.33333334, y: 0.33333334, z: 0.33333334}
        outWeight: {x: 0.33333334, y: 0.33333334, z: 0.33333334}
      - serializedVersion: 3
        time: 3.8
        value: {x: -0.005533682, y: -0.0031691857, z: -0.33033103}
        inSlope: {x: 0.00036307855, y: -0.00051587605, z: -0.3162715}
        outSlope: {x: 0.00036307346, y: -0.000516051, z: -0.826445}
        tangentMode: 0
        weightedMode: 0
        inWeight: {x: 0.33333334, y: 0.33333334, z: 0.33333334}
        outWeight: {x: 0.33333334, y: 0.33333334, z: 0.33333334}
      - serializedVersion: 3
        time: 3.8333333
        value: {x: -0.0055227624, y: -0.003184707, z: -0.35787916}
        inSlope: {x: 0.0002820962, y: -0.00040105655, z: -0.826445}
        outSlope: {x: 0.00028222907, y: -0.00040091138, z: -0.2343077}
        tangentMode: 0
        weightedMode: 0
        inWeight: {x: 0.33333334, y: 0.33333334, z: 0.33333334}
        outWeight: {x: 0.33333334, y: 0.33333334, z: 0.33333334}
      - serializedVersion: 3
        time: 4
        value: {x: -0.005509293, y: -0.0032038498, z: -0.38514662}
        inSlope: {x: -0.0000001115462, y: -0.000000034910954, z: -0.14592947}
        outSlope: {x: -0.0000001115462, y: -0.000000034910954, z: -0.14592947}
        tangentMode: 0
        weightedMode: 0
        inWeight: {x: 0.33333334, y: 0.33333334, z: 0.33333334}
        outWeight: {x: 0.33333334, y: 0.33333334, z: 0.33333334}
      m_PreInfinity: 2
      m_PostInfinity: 2
      m_RotationOrder: 4
    path: "cocon.\u04325/Head_gusenica"
  m_ScaleCurves:
  - curve:
      serializedVersion: 2
      m_Curve:
      - serializedVersion: 3
        time: 0.033333335
        value: {x: 1.5595326, y: 1.5595326, z: 1.5595326}
        inSlope: {x: 0, y: 0, z: 0}
        outSlope: {x: 0, y: 0, z: 0}
        tangentMode: 0
        weightedMode: 0
        inWeight: {x: 0.33333334, y: 0.33333334, z: 0.33333334}
        outWeight: {x: 0.33333334, y: 0.33333334, z: 0.33333334}
      - serializedVersion: 3
        time: 0.06666667
        value: {x: 1.5595326, y: 1.5595326, z: 1.5595326}
        inSlope: {x: 0, y: 0, z: 0}
        outSlope: {x: 0, y: 0, z: 0}
        tangentMode: 0
        weightedMode: 0
        inWeight: {x: 0.33333334, y: 0.33333334, z: 0.33333334}
        outWeight: {x: 0.33333334, y: 0.33333334, z: 0.33333334}
      m_PreInfinity: 2
      m_PostInfinity: 2
      m_RotationOrder: 4
    path: Vaza.001
  - curve:
      serializedVersion: 2
      m_Curve:
      - serializedVersion: 3
        time: 0.033333335
        value: {x: 33.66289, y: 33.66288, z: 33.66287}
        inSlope: {x: 0, y: 0, z: 0}
        outSlope: {x: 0, y: 0, z: 0}
        tangentMode: 0
        weightedMode: 0
        inWeight: {x: 0.33333334, y: 0.33333334, z: 0.33333334}
        outWeight: {x: 0.33333334, y: 0.33333334, z: 0.33333334}
      - serializedVersion: 3
        time: 0.06666667
        value: {x: 33.66289, y: 33.66288, z: 33.66287}
        inSlope: {x: 0, y: 0, z: 0}
        outSlope: {x: 0, y: 0, z: 0}
        tangentMode: 0
        weightedMode: 0
        inWeight: {x: 0.33333334, y: 0.33333334, z: 0.33333334}
        outWeight: {x: 0.33333334, y: 0.33333334, z: 0.33333334}
      m_PreInfinity: 2
      m_PostInfinity: 2
      m_RotationOrder: 4
    path: List.004
  - curve:
      serializedVersion: 2
      m_Curve:
      - serializedVersion: 3
        time: 0.033333335
        value: {x: 33.662895, y: 33.662876, z: 33.66287}
        inSlope: {x: 0, y: 0, z: 0}
        outSlope: {x: 0, y: 0, z: 0}
        tangentMode: 0
        weightedMode: 0
        inWeight: {x: 0.33333334, y: 0.33333334, z: 0.33333334}
        outWeight: {x: 0.33333334, y: 0.33333334, z: 0.33333334}
      - serializedVersion: 3
        time: 0.06666667
        value: {x: 33.662895, y: 33.662876, z: 33.66287}
        inSlope: {x: 0, y: 0, z: 0}
        outSlope: {x: 0, y: 0, z: 0}
        tangentMode: 0
        weightedMode: 0
        inWeight: {x: 0.33333334, y: 0.33333334, z: 0.33333334}
        outWeight: {x: 0.33333334, y: 0.33333334, z: 0.33333334}
      m_PreInfinity: 2
      m_PostInfinity: 2
      m_RotationOrder: 4
    path: List.005
  - curve:
      serializedVersion: 2
      m_Curve:
      - serializedVersion: 3
        time: 0.033333335
        value: {x: 33.662895, y: 33.66288, z: 33.66287}
        inSlope: {x: 0, y: 0, z: 0}
        outSlope: {x: 0, y: 0, z: 0}
        tangentMode: 0
        weightedMode: 0
        inWeight: {x: 0.33333334, y: 0.33333334, z: 0.33333334}
        outWeight: {x: 0.33333334, y: 0.33333334, z: 0.33333334}
      - serializedVersion: 3
        time: 0.06666667
        value: {x: 33.662895, y: 33.66288, z: 33.66287}
        inSlope: {x: 0, y: 0, z: 0}
        outSlope: {x: 0, y: 0, z: 0}
        tangentMode: 0
        weightedMode: 0
        inWeight: {x: 0.33333334, y: 0.33333334, z: 0.33333334}
        outWeight: {x: 0.33333334, y: 0.33333334, z: 0.33333334}
      m_PreInfinity: 2
      m_PostInfinity: 2
      m_RotationOrder: 4
    path: List.006
  - curve:
      serializedVersion: 2
      m_Curve:
      - serializedVersion: 3
        time: 0.033333335
        value: {x: 1, y: 1.0000001, z: 1}
        inSlope: {x: 0, y: 0, z: 0}
        outSlope: {x: 0, y: 0, z: 0}
        tangentMode: 0
        weightedMode: 0
        inWeight: {x: 0.33333334, y: 0.33333334, z: 0.33333334}
        outWeight: {x: 0.33333334, y: 0.33333334, z: 0.33333334}
      - serializedVersion: 3
        time: 4.166667
        value: {x: 1, y: 1.0000001, z: 1}
        inSlope: {x: 0, y: 0, z: 0}
        outSlope: {x: 0, y: 0, z: 0}
        tangentMode: 0
        weightedMode: 0
        inWeight: {x: 0.33333334, y: 0.33333334, z: 0.33333334}
        outWeight: {x: 0.33333334, y: 0.33333334, z: 0.33333334}
      m_PreInfinity: 2
      m_PostInfinity: 2
      m_RotationOrder: 4
    path: "cocon.\u04325"
  - curve:
      serializedVersion: 2
      m_Curve:
      - serializedVersion: 3
        time: 4.033334
        value: {x: 1, y: 0.9999999, z: 1.0000001}
        inSlope: {x: 0, y: 0, z: 0}
        outSlope: {x: 0, y: 0, z: 0}
        tangentMode: 0
        weightedMode: 0
        inWeight: {x: 0.33333334, y: 0.33333334, z: 0.33333334}
        outWeight: {x: 0.33333334, y: 0.33333334, z: 0.33333334}
      - serializedVersion: 3
        time: 4.066667
        value: {x: 1, y: 0.9999999, z: 1.0000001}
        inSlope: {x: 0, y: 0, z: 0}
        outSlope: {x: 0, y: 0, z: 0}
        tangentMode: 0
        weightedMode: 0
        inWeight: {x: 0.33333334, y: 0.33333334, z: 0.33333334}
        outWeight: {x: 0.33333334, y: 0.33333334, z: 0.33333334}
      m_PreInfinity: 2
      m_PostInfinity: 2
      m_RotationOrder: 4
    path: "cocon.\u04325/krilo_v3"
  - curve:
      serializedVersion: 2
      m_Curve:
      - serializedVersion: 3
        time: 0.033333335
        value: {x: 1, y: 1.0000001, z: 1}
        inSlope: {x: 0, y: 0, z: 0}
        outSlope: {x: 0, y: 0, z: 0}
        tangentMode: 0
        weightedMode: 0
        inWeight: {x: 0.33333334, y: 0.33333334, z: 0.33333334}
        outWeight: {x: 0.33333334, y: 0.33333334, z: 0.33333334}
      - serializedVersion: 3
        time: 4.166667
        value: {x: 1, y: 1.0000001, z: 1}
        inSlope: {x: 0, y: 0, z: 0}
        outSlope: {x: 0, y: 0, z: 0}
        tangentMode: 0
        weightedMode: 0
        inWeight: {x: 0.33333334, y: 0.33333334, z: 0.33333334}
        outWeight: {x: 0.33333334, y: 0.33333334, z: 0.33333334}
      m_PreInfinity: 2
      m_PostInfinity: 2
      m_RotationOrder: 4
    path: "cocon.\u0432006"
  m_FloatCurves:
  - curve:
      serializedVersion: 2
      m_Curve:
      - serializedVersion: 3
        time: 0
        value: 0
        inSlope: 0.00002578689
        outSlope: 0.00002578689
        tangentMode: 0
        weightedMode: 0
        inWeight: 0.33333334
        outWeight: 0.33333334
      - serializedVersion: 3
        time: 0.033333335
        value: 0.00000085956304
        inSlope: 0.00009904222
        outSlope: 0.00009904222
        tangentMode: 0
        weightedMode: 0
        inWeight: 0.33333334
        outWeight: 0.33333334
      - serializedVersion: 3
        time: 0.06666667
        value: 0.0000066028147
        inSlope: 0.00031674808
        outSlope: 0.00031674808
        tangentMode: 0
        weightedMode: 0
        inWeight: 0.33333334
        outWeight: 0.33333334
      - serializedVersion: 3
        time: 0.10000001
        value: 0.000021976104
        inSlope: 0.00067683804
        outSlope: 0.00067683804
        tangentMode: 0
        weightedMode: 0
        inWeight: 0.33333334
        outWeight: 0.33333334
      - serializedVersion: 3
        time: 0.16666667
        value: 0.00010059597
        inSlope: 0.0018241126
        outSlope: 0.0018241126
        tangentMode: 0
        weightedMode: 0
        inWeight: 0.33333334
        outWeight: 0.33333334
      - serializedVersion: 3
        time: 1.4333334
        value: 0.062978774
        inSlope: 0.13173045
        outSlope: 0.13173045
        tangentMode: 0
        weightedMode: 0
        inWeight: 0.33333334
        outWeight: 0.33333334
      - serializedVersion: 3
        time: 3.0666668
        value: 0.6160989
        inSlope: 0.6026867
        outSlope: 0.6026867
        tangentMode: 0
        weightedMode: 0
        inWeight: 0.33333334
        outWeight: 0.33333334
      - serializedVersion: 3
        time: 3.1666667
        value: 0.6783531
        inSlope: 0.6426645
        outSlope: 0.6426645
        tangentMode: 0
        weightedMode: 0
        inWeight: 0.33333334
        outWeight: 0.33333334
      - serializedVersion: 3
        time: 3.2000003
        value: 0.70000094
        inSlope: 9.086679
        outSlope: 9.086679
        tangentMode: 0
        weightedMode: 0
        inWeight: 0.33333334
        outWeight: 0.33333334
      - serializedVersion: 3
        time: 3.2333336
        value: 1.2841313
        inSlope: 33.20484
        outSlope: 33.20484
        tangentMode: 0
        weightedMode: 0
        inWeight: 0.33333334
        outWeight: 0.33333334
      - serializedVersion: 3
        time: 3.5666668
        value: 45.093735
        inSlope: 169.37363
        outSlope: 169.37363
        tangentMode: 0
        weightedMode: 0
        inWeight: 0.33333334
        outWeight: 0.33333334
      - serializedVersion: 3
        time: 3.8000002
        value: 75.800026
        inSlope: 82.107666
        outSlope: 82.107666
        tangentMode: 0
        weightedMode: 0
        inWeight: 0.33333334
        outWeight: 0.33333334
      - serializedVersion: 3
        time: 4.166667
        value: 100
        inSlope: 10.787898
        outSlope: 10.787898
        tangentMode: 0
        weightedMode: 0
        inWeight: 0.33333334
        outWeight: 0.33333334
      m_PreInfinity: 2
      m_PostInfinity: 2
      m_RotationOrder: 4
    attribute: blendShape.krilo_v4morpher
    path: "cocon.\u04325/krilo_v3"
    classID: 137
    script: {fileID: 0}
  - curve:
      serializedVersion: 2
      m_Curve:
      - serializedVersion: 3
        time: 0
        value: 0
        inSlope: 0
        outSlope: 0
        tangentMode: 0
        weightedMode: 0
        inWeight: 0.33333334
        outWeight: 0.33333334
      - serializedVersion: 3
        time: 1.6333334
        value: 0
        inSlope: 0
        outSlope: 0
        tangentMode: 0
        weightedMode: 0
        inWeight: 0.33333334
        outWeight: 0.33333334
      - serializedVersion: 3
        time: 3.1666667
        value: 0
        inSlope: 5.749186e-10
        outSlope: 5.749186e-10
        tangentMode: 0
        weightedMode: 0
        inWeight: 0.33333334
        outWeight: 0.33333334
      - serializedVersion: 3
        time: 3.2000003
        value: 3.8328146e-11
        inSlope: 7.973405
        outSlope: 7.973405
        tangentMode: 0
        weightedMode: 0
        inWeight: 0.33333334
        outWeight: 0.33333334
      - serializedVersion: 3
        time: 3.2333336
        value: 0.5315598
        inSlope: 30.741653
        outSlope: 30.741653
        tangentMode: 0
        weightedMode: 0
        inWeight: 0.33333334
        outWeight: 0.33333334
      - serializedVersion: 3
        time: 3.3333335
        value: 7.5840473
        inSlope: 103.986595
        outSlope: 103.986595
        tangentMode: 0
        weightedMode: 0
        inWeight: 0.33333334
        outWeight: 0.33333334
      - serializedVersion: 3
        time: 3.6333334
        value: 50.999725
        inSlope: 137.86859
        outSlope: 137.86859
        tangentMode: 0
        weightedMode: 0
        inWeight: 0.33333334
        outWeight: 0.33333334
      - serializedVersion: 3
        time: 3.7333336
        value: 65.371796
        inSlope: 167.01587
        outSlope: 167.01587
        tangentMode: 0
        weightedMode: 0
        inWeight: 0.33333334
        outWeight: 0.33333334
      - serializedVersion: 3
        time: 3.966667
        value: 99.12573
        inSlope: 49.595173
        outSlope: 49.595173
        tangentMode: 0
        weightedMode: 0
        inWeight: 0.33333334
        outWeight: 0.33333334
      - serializedVersion: 3
        time: 4
        value: 100
        inSlope: 26.22824
        outSlope: 26.22824
        tangentMode: 0
        weightedMode: 0
        inWeight: 0.33333334
        outWeight: 0.33333334
      m_PreInfinity: 2
      m_PostInfinity: 2
      m_RotationOrder: 4
    attribute: blendShape.Head_gusenica001
    path: "cocon.\u04325/Head_gusenica"
    classID: 137
    script: {fileID: 0}
  - curve:
      serializedVersion: 2
      m_Curve:
      - serializedVersion: 3
        time: 0
        value: 0
        inSlope: 0
        outSlope: 0
        tangentMode: 0
        weightedMode: 0
        inWeight: 0.33333334
        outWeight: 0.33333334
      - serializedVersion: 3
        time: 1.6333334
        value: 0
        inSlope: 0
        outSlope: 0
        tangentMode: 0
        weightedMode: 0
        inWeight: 0.33333334
        outWeight: 0.33333334
      - serializedVersion: 3
        time: 3.1666667
        value: 0
        inSlope: 3.9967774e-10
        outSlope: 3.9967774e-10
        tangentMode: 0
        weightedMode: 0
        inWeight: 0.33333334
        outWeight: 0.33333334
      - serializedVersion: 3
        time: 3.2000003
        value: 2.6645347e-11
        inSlope: 5.2306347
        outSlope: 5.2306347
        tangentMode: 0
        weightedMode: 0
        inWeight: 0.33333334
        outWeight: 0.33333334
      - serializedVersion: 3
        time: 3.2333336
        value: 0.34870866
        inSlope: 20.428797
        outSlope: 20.428797
        tangentMode: 0
        weightedMode: 0
        inWeight: 0.33333334
        outWeight: 0.33333334
      - serializedVersion: 3
        time: 3.7333336
        value: 57.72984
        inSlope: 153.24432
        outSlope: 153.24432
        tangentMode: 0
        weightedMode: 0
        inWeight: 0.33333334
        outWeight: 0.33333334
      - serializedVersion: 3
        time: 4.1333337
        value: 99.651306
        inSlope: 20.42841
        outSlope: 20.42841
        tangentMode: 0
        weightedMode: 0
        inWeight: 0.33333334
        outWeight: 0.33333334
      - serializedVersion: 3
        time: 4.166667
        value: 100
        inSlope: 10.460825
        outSlope: 10.460825
        tangentMode: 0
        weightedMode: 0
        inWeight: 0.33333334
        outWeight: 0.33333334
      m_PreInfinity: 2
      m_PostInfinity: 2
      m_RotationOrder: 4
    attribute: "blendShape.cocon.\u04326\u043C\u043E\u0440\u0444\u0435\u0440\u04322"
    path: "cocon.\u0432006"
    classID: 137
    script: {fileID: 0}
  m_PPtrCurves: []
  m_SampleRate: 30
  m_WrapMode: 0
  m_Bounds:
    m_Center: {x: 0, y: 0, z: 0}
    m_Extent: {x: 0, y: 0, z: 0}
  m_ClipBindingConstant:
    genericBindings: []
    pptrCurveMapping: []
  m_AnimationClipSettings:
    serializedVersion: 2
    m_AdditiveReferencePoseClip: {fileID: 0}
    m_AdditiveReferencePoseTime: 0
    m_StartTime: 0
    m_StopTime: 4.166667
    m_OrientationOffsetY: 0
    m_Level: 0
    m_CycleOffset: 0
    m_HasAdditiveReferencePose: 0
    m_LoopTime: 0
    m_LoopBlend: 0
    m_LoopBlendOrientation: 0
    m_LoopBlendPositionY: 0
    m_LoopBlendPositionXZ: 0
    m_KeepOriginalOrientation: 0
    m_KeepOriginalPositionY: 1
    m_KeepOriginalPositionXZ: 0
    m_HeightFromFeet: 0
    m_Mirror: 0
  m_EditorCurves: []
  m_EulerEditorCurves: []
  m_HasGenericRootTransform: 0
  m_HasMotionFloatCurves: 0
  m_Events: []
