%YAML 1.1
%TAG !u! tag:unity3d.com,2011:
--- !u!74 &7400000
AnimationClip:
  m_ObjectHideFlags: 0
  m_CorrespondingSourceObject: {fileID: 0}
  m_PrefabInstance: {fileID: 0}
  m_PrefabAsset: {fileID: 0}
  m_Name: Take 012
  serializedVersion: 6
  m_Legacy: 0
  m_Compressed: 0
  m_UseHighQualityCurve: 1
  m_RotationCurves:
  - curve:
      serializedVersion: 2
      m_Curve:
      - serializedVersion: 3
        time: 1.1333334
        value: {x: -0.6972245, y: 0.0094268415, z: -0.013171104, w: 0.71666986}
        inSlope: {x: 0, y: 0.00000047497497, z: -0.00000047497497, w: 0}
        outSlope: {x: 0, y: 0.00000047497497, z: -0.00000047497497, w: 0}
        tangentMode: 0
        weightedMode: 0
        inWeight: {x: 0.33333334, y: 0.33333334, z: 0.33333334, w: 0.33333334}
        outWeight: {x: 0.33333334, y: 0.33333334, z: 0.33333334, w: 0.33333334}
      - serializedVersion: 3
        time: 1.2
        value: {x: -0.7031067, y: 0.021984957, z: -0.024899878, w: 0.71030813}
        inSlope: {x: -0.23590496, y: 0.4992543, z: -0.47349343, w: -0.27284527}
        outSlope: {x: -0.23590496, y: 0.4992543, z: -0.47349343, w: -0.27284527}
        tangentMode: 0
        weightedMode: 0
        inWeight: {x: 0.33333334, y: 0.33333334, z: 0.33333334, w: 0.33333334}
        outWeight: {x: 0.33333334, y: 0.33333334, z: 0.33333334, w: 0.33333334}
      - serializedVersion: 3
        time: 1.3333334
        value: {x: -0.72522694, y: 0.108966656, z: -0.10915422, w: 0.6710123}
        inSlope: {x: 0.012743084, y: 0.75669754, z: -0.65927494, w: -0.2184765}
        outSlope: {x: 0.012743084, y: 0.75669754, z: -0.65927494, w: -0.2184765}
        tangentMode: 0
        weightedMode: 0
        inWeight: {x: 0.33333334, y: 0.33333334, z: 0.33333334, w: 0.33333334}
        outWeight: {x: 0.33333334, y: 0.33333334, z: 0.33333334, w: 0.33333334}
      - serializedVersion: 3
        time: 1.4666667
        value: {x: -0.69047797, y: 0.24147487, z: -0.21918611, w: 0.6456684}
        inSlope: {x: 0.58718944, y: 1.2081277, z: -0.9927935, w: -0.16792667}
        outSlope: {x: 0.58718944, y: 1.2081277, z: -0.9927935, w: -0.16792667}
        tangentMode: 0
        weightedMode: 0
        inWeight: {x: 0.33333334, y: 0.33333334, z: 0.33333334, w: 0.33333334}
        outWeight: {x: 0.33333334, y: 0.33333334, z: 0.33333334, w: 0.33333334}
      - serializedVersion: 3
        time: 1.6000001
        value: {x: -0.58735824, y: 0.41911137, z: -0.3837824, w: 0.5762526}
        inSlope: {x: 1.0059242, y: 1.4179312, z: -1.5546806, w: -1.0623751}
        outSlope: {x: 1.0059242, y: 1.4179312, z: -1.5546806, w: -1.0623751}
        tangentMode: 0
        weightedMode: 0
        inWeight: {x: 0.33333334, y: 0.33333334, z: 0.33333334, w: 0.33333334}
        outWeight: {x: 0.33333334, y: 0.33333334, z: 0.33333334, w: 0.33333334}
      - serializedVersion: 3
        time: 1.6333334
        value: {x: -0.55157024, y: 0.46619263, z: -0.4382183, w: 0.5351631}
        inSlope: {x: 0.85246855, y: 1.0206954, z: -1.1713071, w: -0.8800023}
        outSlope: {x: 0.85246855, y: 1.0206954, z: -1.1713071, w: -0.8800023}
        tangentMode: 0
        weightedMode: 0
        inWeight: {x: 0.33333334, y: 0.33333334, z: 0.33333334, w: 0.33333334}
        outWeight: {x: 0.33333334, y: 0.33333334, z: 0.33333334, w: 0.33333334}
      - serializedVersion: 3
        time: 1.6666667
        value: {x: -0.53052706, y: 0.48715767, z: -0.46186945, w: 0.5175858}
        inSlope: {x: 0.31564802, y: 0.3144759, z: -0.35476762, w: -0.2636596}
        outSlope: {x: 0.31564802, y: 0.3144759, z: -0.35476762, w: -0.2636596}
        tangentMode: 0
        weightedMode: 0
        inWeight: {x: 0.33333334, y: 0.33333334, z: 0.33333334, w: 0.33333334}
        outWeight: {x: 0.33333334, y: 0.33333334, z: 0.33333334, w: 0.33333334}
      - serializedVersion: 3
        time: 1.7
        value: {x: -0.53052706, y: 0.48715767, z: -0.46186945, w: 0.5175858}
        inSlope: {x: 0, y: 0, z: 0, w: 0}
        outSlope: {x: 0, y: 0, z: 0, w: 0}
        tangentMode: 0
        weightedMode: 0
        inWeight: {x: 0.33333334, y: 0.33333334, z: 0.33333334, w: 0.33333334}
        outWeight: {x: 0.33333334, y: 0.33333334, z: 0.33333334, w: 0.33333334}
      m_PreInfinity: 2
      m_PostInfinity: 2
      m_RotationOrder: 4
    path: Ap2
  - curve:
      serializedVersion: 2
      m_Curve:
      - serializedVersion: 3
        time: 1.1333334
        value: {x: 0.7070916, y: 0.005504577, z: 0.005504506, w: 0.7070792}
        inSlope: {x: 0, y: 0.0000025145735, z: 0.0000025145735, w: 0}
        outSlope: {x: 0, y: 0.0000025145735, z: 0.0000025145735, w: 0}
        tangentMode: 0
        weightedMode: 0
        inWeight: {x: 0.33333334, y: 0.33333334, z: 0.33333334, w: 0.33333334}
        outWeight: {x: 0.33333334, y: 0.33333334, z: 0.33333334, w: 0.33333334}
      - serializedVersion: 3
        time: 1.1666667
        value: {x: 0.7070916, y: 0.005504661, z: 0.00550459, w: 0.7070792}
        inSlope: {x: -0.061011374, y: 1.0564228, z: 1.0564044, w: -0.06101048}
        outSlope: {x: -0.061011374, y: 1.0564228, z: 1.0564044, w: -0.06101048}
        tangentMode: 0
        weightedMode: 0
        inWeight: {x: 0.33333334, y: 0.33333334, z: 0.33333334, w: 0.33333334}
        outWeight: {x: 0.33333334, y: 0.33333334, z: 0.33333334, w: 0.33333334}
      - serializedVersion: 3
        time: 1.2
        value: {x: 0.7030242, y: 0.0759327, z: 0.07593139, w: 0.7030118}
        inSlope: {x: -0.26349688, y: 2.2683587, z: 2.2683191, w: -0.2634915}
        outSlope: {x: -0.26349688, y: 2.2683587, z: 2.2683191, w: -0.2634915}
        tangentMode: 0
        weightedMode: 0
        inWeight: {x: 0.33333334, y: 0.33333334, z: 0.33333334, w: 0.33333334}
        outWeight: {x: 0.33333334, y: 0.33333334, z: 0.33333334, w: 0.33333334}
      - serializedVersion: 3
        time: 1.2666668
        value: {x: 0.6667219, y: 0.23556471, z: 0.23556061, w: 0.66671014}
        inSlope: {x: -0.7468159, y: 2.1676533, z: 2.1676154, w: -0.7468034}
        outSlope: {x: -0.7468159, y: 2.1676533, z: 2.1676154, w: -0.7468034}
        tangentMode: 0
        weightedMode: 0
        inWeight: {x: 0.33333334, y: 0.33333334, z: 0.33333334, w: 0.33333334}
        outWeight: {x: 0.33333334, y: 0.33333334, z: 0.33333334, w: 0.33333334}
      - serializedVersion: 3
        time: 1.3333334
        value: {x: 0.61633, y: 0.34662095, z: 0.3466149, w: 0.6163192}
        inSlope: {x: -0.6439756, y: 1.1701903, z: 1.1701698, w: -0.64396393}
        outSlope: {x: -0.6439756, y: 1.1701903, z: 1.1701698, w: -0.64396393}
        tangentMode: 0
        weightedMode: 0
        inWeight: {x: 0.33333334, y: 0.33333334, z: 0.33333334, w: 0.33333334}
        outWeight: {x: 0.33333334, y: 0.33333334, z: 0.33333334, w: 0.33333334}
      - serializedVersion: 3
        time: 1.4000001
        value: {x: 0.5759019, y: 0.41029957, z: 0.41029242, w: 0.5758918}
        inSlope: {x: -0.7403548, y: 1.0246066, z: 1.0245883, w: -0.74034315}
        outSlope: {x: -0.7403548, y: 1.0246066, z: 1.0245883, w: -0.74034315}
        tangentMode: 0
        weightedMode: 0
        inWeight: {x: 0.33333334, y: 0.33333334, z: 0.33333334, w: 0.33333334}
        outWeight: {x: 0.33333334, y: 0.33333334, z: 0.33333334, w: 0.33333334}
      - serializedVersion: 3
        time: 1.4333334
        value: {x: 0.54744875, y: 0.44755858, z: 0.44755074, w: 0.54743904}
        inSlope: {x: -0.7488815, y: 0.93461436, z: 0.9345974, w: -0.748869}
        outSlope: {x: -0.7488815, y: 0.93461436, z: 0.9345974, w: -0.748869}
        tangentMode: 0
        weightedMode: 0
        inWeight: {x: 0.33333334, y: 0.33333334, z: 0.33333334, w: 0.33333334}
        outWeight: {x: 0.33333334, y: 0.33333334, z: 0.33333334, w: 0.33333334}
      - serializedVersion: 3
        time: 1.4666667
        value: {x: 0.52597654, y: 0.47260714, z: 0.47259885, w: 0.52596724}
        inSlope: {x: 0.060435116, y: -0.07461125, z: -0.074609905, w: 0.060435116}
        outSlope: {x: 0.060435116, y: -0.07461125, z: -0.074609905, w: 0.060435116}
        tangentMode: 0
        weightedMode: 0
        inWeight: {x: 0.33333334, y: 0.33333334, z: 0.33333334, w: 0.33333334}
        outWeight: {x: 0.33333334, y: 0.33333334, z: 0.33333334, w: 0.33333334}
      - serializedVersion: 3
        time: 1.5000001
        value: {x: 0.55147785, y: 0.4425844, z: 0.44257665, w: 0.55146813}
        inSlope: {x: 0.41908613, y: -0.49616146, z: -0.49615252, w: 0.41907898}
        outSlope: {x: 0.41908613, y: -0.49616146, z: -0.49615252, w: 0.41907898}
        tangentMode: 0
        weightedMode: 0
        inWeight: {x: 0.33333334, y: 0.33333334, z: 0.33333334, w: 0.33333334}
        outWeight: {x: 0.33333334, y: 0.33333334, z: 0.33333334, w: 0.33333334}
      - serializedVersion: 3
        time: 1.5333334
        value: {x: 0.5539157, y: 0.43952963, z: 0.43952194, w: 0.5539059}
        inSlope: {x: 0.046758994, y: -0.058687683, z: -0.058686342, w: 0.0467581}
        outSlope: {x: 0.046758994, y: -0.058687683, z: -0.058686342, w: 0.0467581}
        tangentMode: 0
        weightedMode: 0
        inWeight: {x: 0.33333334, y: 0.33333334, z: 0.33333334, w: 0.33333334}
        outWeight: {x: 0.33333334, y: 0.33333334, z: 0.33333334, w: 0.33333334}
      - serializedVersion: 3
        time: 1.7
        value: {x: 0.5514778, y: 0.4425845, z: 0.44257674, w: 0.5514681}
        inSlope: {x: -0.014671697, y: 0.018301623, z: 0.018300729, w: -0.014671697}
        outSlope: {x: -0.014671697, y: 0.018301623, z: 0.018300729, w: -0.014671697}
        tangentMode: 0
        weightedMode: 0
        inWeight: {x: 0.33333334, y: 0.33333334, z: 0.33333334, w: 0.33333334}
        outWeight: {x: 0.33333334, y: 0.33333334, z: 0.33333334, w: 0.33333334}
      m_PreInfinity: 2
      m_PostInfinity: 2
      m_RotationOrder: 4
    path: Ap004
  m_CompressedRotationCurves: []
  m_EulerCurves: []
  m_PositionCurves:
  - curve:
      serializedVersion: 2
      m_Curve:
      - serializedVersion: 3
        time: 1.1333333
        value: {x: 0.69715333, y: 0.14677499, z: 1.029187}
        inSlope: {x: 1.7763585e-14, y: 1.1102241e-15, z: 8.881793e-15}
        outSlope: {x: 1.7763585e-14, y: 1.1102241e-15, z: 8.881793e-15}
        tangentMode: 0
        weightedMode: 0
        inWeight: {x: 0.33333334, y: 0.33333334, z: 0.33333334}
        outWeight: {x: 0.33333334, y: 0.33333334, z: 0.33333334}
      - serializedVersion: 3
        time: 1.1666666
        value: {x: 0.69715333, y: 0.14677499, z: 1.029187}
        inSlope: {x: 7.612965e-15, y: 4.7581033e-16, z: 3.8064826e-15}
        outSlope: {x: 0.000032350188, y: -0.00007756225, z: -0.000022115828}
        tangentMode: 0
        weightedMode: 0
        inWeight: {x: 0.33333334, y: 0.33333334, z: 0.33333334}
        outWeight: {x: 0.33333334, y: 0.33333334, z: 0.33333334}
      - serializedVersion: 3
        time: 1.2
        value: {x: 0.7019585, y: 0.1394317, z: 1.026893}
        inSlope: {x: 0.18859778, y: -0.00007756225, z: -0.0989315}
        outSlope: {x: 0.18860619, y: 0.000007694268, z: -0.09895081}
        tangentMode: 0
        weightedMode: 0
        inWeight: {x: 0.33333334, y: 0.33333334, z: 0.33333334}
        outWeight: {x: 0.33333334, y: 0.33333334, z: 0.33333334}
      - serializedVersion: 3
        time: 1.4
        value: {x: 0.7566488, y: 0.1389539, z: 1.013682}
        inSlope: {x: 0.36439413, y: -0.06088909, z: 0.0000021805654}
        outSlope: {x: 0.36439028, y: -0.06089835, z: -0.000010574162}
        tangentMode: 0
        weightedMode: 0
        inWeight: {x: 0.33333334, y: 0.33333334, z: 0.33333334}
        outWeight: {x: 0.33333334, y: 0.33333334, z: 0.33333334}
      - serializedVersion: 3
        time: 1.5666667
        value: {x: 0.83184195, y: 0.1208768, z: 1.0215969}
        inSlope: {x: 0.53675234, y: -0.22967796, z: 0.00002125089}
        outSlope: {x: 0.5367757, y: -0.22970547, z: -0.0000021790213}
        tangentMode: 0
        weightedMode: 0
        inWeight: {x: 0.33333334, y: 0.33333334, z: 0.33333334}
        outWeight: {x: 0.33333334, y: 0.33333334, z: 0.33333334}
      - serializedVersion: 3
        time: 1.6
        value: {x: 0.8503764, y: 0.1119266, z: 1.021296}
        inSlope: {x: 0.5636857, y: -0.2634015, z: -0.027075656}
        outSlope: {x: 0.56372017, y: -0.26340577, z: -0.027116302}
        tangentMode: 0
        weightedMode: 0
        inWeight: {x: 0.33333334, y: 0.33333334, z: 0.33333334}
        outWeight: {x: 0.33333334, y: 0.33333334, z: 0.33333334}
      - serializedVersion: 3
        time: 1.6333333
        value: {x: 0.8694217, y: 0.103316896, z: 1.0196971}
        inSlope: {x: 0.49715906, y: -0.14026587, z: -0.043541316}
        outSlope: {x: 0.49712107, y: -0.14020303, z: -0.04351875}
        tangentMode: 0
        weightedMode: 0
        inWeight: {x: 0.33333334, y: 0.33333334, z: 0.33333334}
        outWeight: {x: 0.33333334, y: 0.33333334, z: 0.33333334}
      - serializedVersion: 3
        time: 1.7
        value: {x: 0.883518, y: 0.1017588, z: 1.018395}
        inSlope: {x: -0, y: 4.7580863e-16, z: 1.1419408e-14}
        outSlope: {x: -0, y: 4.7580863e-16, z: 1.1419408e-14}
        tangentMode: 0
        weightedMode: 0
        inWeight: {x: 0.33333334, y: 0.33333334, z: 0.33333334}
        outWeight: {x: 0.33333334, y: 0.33333334, z: 0.33333334}
      m_PreInfinity: 2
      m_PostInfinity: 2
      m_RotationOrder: 4
    path: Ap2
  - curve:
      serializedVersion: 2
      m_Curve:
      - serializedVersion: 3
        time: 1.1333333
        value: {x: 0.64588636, y: 0.110908404, z: 1.025102}
        inSlope: {x: 4.4408963e-15, y: -0, z: 2.6645378e-14}
        outSlope: {x: 4.4408963e-15, y: -0, z: 2.6645378e-14}
        tangentMode: 0
        weightedMode: 0
        inWeight: {x: 0.33333334, y: 0.33333334, z: 0.33333334}
        outWeight: {x: 0.33333334, y: 0.33333334, z: 0.33333334}
      - serializedVersion: 3
        time: 1.2
        value: {x: 0.6337703, y: 0.11254387, z: 1.025102}
        inSlope: {x: -0.6673746, y: 0.08829783, z: 1.1419408e-14}
        outSlope: {x: -0.66739106, y: 0.08830003, z: 2.6645378e-14}
        tangentMode: 0
        weightedMode: 0
        inWeight: {x: 0.33333334, y: 0.33333334, z: 0.33333334}
        outWeight: {x: 0.33333334, y: 0.33333334, z: 0.33333334}
      - serializedVersion: 3
        time: 1.3
        value: {x: 0.547214, y: 0.121373296, z: 1.025102}
        inSlope: {x: -0.52881503, y: 0.000000824921, z: 1.1419489e-14}
        outSlope: {x: -0.528784, y: -0.0000039183215, z: 2.6645283e-14}
        tangentMode: 0
        weightedMode: 0
        inWeight: {x: 0.33333334, y: 0.33333334, z: 0.33333334}
        outWeight: {x: 0.33333334, y: 0.33333334, z: 0.33333334}
      - serializedVersion: 3
        time: 1.4
        value: {x: 0.522501, y: 0.114596, z: 1.025102}
        inSlope: {x: -0.000004895835, y: -0.046211172, z: 1.1419489e-14}
        outSlope: {x: -0, y: -0.046209645, z: 2.6645283e-14}
        tangentMode: 0
        weightedMode: 0
        inWeight: {x: 0.33333334, y: 0.33333334, z: 0.33333334}
        outWeight: {x: 0.33333334, y: 0.33333334, z: 0.33333334}
      - serializedVersion: 3
        time: 1.7
        value: {x: 0.522501, y: 0.112131394, z: 1.025102}
        inSlope: {x: -0, y: 9.516207e-16, z: 1.1419448e-14}
        outSlope: {x: -0, y: 9.516207e-16, z: 1.1419448e-14}
        tangentMode: 0
        weightedMode: 0
        inWeight: {x: 0.33333334, y: 0.33333334, z: 0.33333334}
        outWeight: {x: 0.33333334, y: 0.33333334, z: 0.33333334}
      m_PreInfinity: 2
      m_PostInfinity: 2
      m_RotationOrder: 4
    path: Ap004
  m_ScaleCurves:
  - curve:
      serializedVersion: 2
      m_Curve:
      - serializedVersion: 3
        time: 1.1333334
        value: {x: 1, y: 1, z: 1}
        inSlope: {x: 0, y: 0, z: 0}
        outSlope: {x: 0, y: 0, z: 0}
        tangentMode: 0
        weightedMode: 0
        inWeight: {x: 0.33333334, y: 0.33333334, z: 0.33333334}
        outWeight: {x: 0.33333334, y: 0.33333334, z: 0.33333334}
      - serializedVersion: 3
        time: 1.7
        value: {x: 1, y: 1, z: 1}
        inSlope: {x: 0, y: 0, z: 0}
        outSlope: {x: 0, y: 0, z: 0}
        tangentMode: 0
        weightedMode: 0
        inWeight: {x: 0.33333334, y: 0.33333334, z: 0.33333334}
        outWeight: {x: 0.33333334, y: 0.33333334, z: 0.33333334}
      m_PreInfinity: 2
      m_PostInfinity: 2
      m_RotationOrder: 4
    path: Ap2
  - curve:
      serializedVersion: 2
      m_Curve:
      - serializedVersion: 3
        time: 1.1333334
        value: {x: -1, y: -1, z: -1}
        inSlope: {x: 0, y: 0, z: 0}
        outSlope: {x: 0, y: 0, z: 0}
        tangentMode: 0
        weightedMode: 0
        inWeight: {x: 0.33333334, y: 0.33333334, z: 0.33333334}
        outWeight: {x: 0.33333334, y: 0.33333334, z: 0.33333334}
      - serializedVersion: 3
        time: 1.7
        value: {x: -1, y: -1, z: -1}
        inSlope: {x: 0, y: 0, z: 0}
        outSlope: {x: 0, y: 0, z: 0}
        tangentMode: 0
        weightedMode: 0
        inWeight: {x: 0.33333334, y: 0.33333334, z: 0.33333334}
        outWeight: {x: 0.33333334, y: 0.33333334, z: 0.33333334}
      m_PreInfinity: 2
      m_PostInfinity: 2
      m_RotationOrder: 4
    path: Ap004
  m_FloatCurves: []
  m_PPtrCurves: []
  m_SampleRate: 30
  m_WrapMode: 0
  m_Bounds:
    m_Center: {x: 0, y: 0, z: 0}
    m_Extent: {x: 0, y: 0, z: 0}
  m_ClipBindingConstant:
    genericBindings: []
    pptrCurveMapping: []
  m_AnimationClipSettings:
    serializedVersion: 2
    m_AdditiveReferencePoseClip: {fileID: 0}
    m_AdditiveReferencePoseTime: 0
    m_StartTime: 0
    m_StopTime: 1.7
    m_OrientationOffsetY: 0
    m_Level: 0
    m_CycleOffset: 0
    m_HasAdditiveReferencePose: 0
    m_LoopTime: 0
    m_LoopBlend: 0
    m_LoopBlendOrientation: 0
    m_LoopBlendPositionY: 0
    m_LoopBlendPositionXZ: 0
    m_KeepOriginalOrientation: 0
    m_KeepOriginalPositionY: 1
    m_KeepOriginalPositionXZ: 0
    m_HeightFromFeet: 0
    m_Mirror: 0
  m_EditorCurves: []
  m_EulerEditorCurves: []
  m_HasGenericRootTransform: 0
  m_HasMotionFloatCurves: 0
  m_Events: []
